%YAML 1.1
%TAG !u! tag:unity3d.com,2011:
--- !u!21 &2100000
Material:
  serializedVersion: 6
  m_ObjectHideFlags: 0
  m_CorrespondingSourceObject: {fileID: 0}
  m_PrefabInstance: {fileID: 0}
  m_PrefabAsset: {fileID: 0}
  m_Name: RiverFlowMat
  m_Shader: {fileID: -6465566751694194690, guid: d954e06ff52394512a478f657633e9ad,
    type: 3}
  m_ShaderKeywords: 
  m_LightmapFlags: 4
  m_EnableInstancingVariants: 0
  m_DoubleSidedGI: 0
  m_CustomRenderQueue: -1
  stringTagMap: {}
  disabledShaderPasses: []
  m_SavedProperties:
    serializedVersion: 3
    m_TexEnvs: []
    m_Floats:
    - Vector1_208322EA: 2
    - Vector1_2DBAAC0C: 20
    - Vector1_C8AEBACA: 10
    m_Colors:
    - Color_22A533F8: {r: 0, g: 0.94285727, b: 1, a: 0}
    - Color_74A4EC8A: {r: 1.0592737, g: 1.0592737, b: 1.0592737, a: 0}
    - Color_96F27897: {r: 0, g: 0.9902081, b: 1, a: 1}
    - Vector2_C8607E5A: {r: 0.1, g: 0, b: 0, a: 0}
